<svg xmlns="http://www.w3.org/2000/svg" xmlns:xlink="http://www.w3.org/1999/xlink" width="874px" height="354px" version="1.1">
  <defs/>
  <g transform="translate(0.5,0.5)">
    <rect x="2" y="2" width="120" height="40" rx="6" ry="6" fill="#cccccc" stroke="none" pointer-events="none"/>
    <g transform="translate(4,11)">
      <switch>
        <foreignObject pointer-events="all" width="116" height="22" requiredFeatures="http://www.w3.org/TR/SVG11/feature#Extensibility">
          <div xmlns="http://www.w3.org/1999/xhtml" style="display: inline-block; font-size: 18px; font-family: Verdana; color: rgb(255, 255, 255); line-height: 1.26; vertical-align: top; width: 116px; white-space: normal; text-align: center;">
            string
          </div>
        </foreignObject>
      </switch>
    </g>
    <rect x="152" y="2" width="120" height="40" rx="6" ry="6" fill="#cccccc" stroke="none" pointer-events="none"/>
    <g transform="translate(154,11)">
      <switch>
        <foreignObject pointer-events="all" width="116" height="22" requiredFeatures="http://www.w3.org/TR/SVG11/feature#Extensibility">
          <div xmlns="http://www.w3.org/1999/xhtml" style="display: inline-block; font-size: 18px; font-family: Verdana; color: rgb(255, 255, 255); line-height: 1.26; vertical-align: top; width: 116px; white-space: normal; text-align: center;">
            boolean
          </div>
        </foreignObject>
      </switch>
    </g>
    <rect x="302" y="2" width="120" height="40" rx="6" ry="6" fill="#cccccc" stroke="none" pointer-events="none"/>
    <g transform="translate(304,11)">
      <switch>
        <foreignObject pointer-events="all" width="116" height="22" requiredFeatures="http://www.w3.org/TR/SVG11/feature#Extensibility">
          <div xmlns="http://www.w3.org/1999/xhtml" style="display: inline-block; font-size: 18px; font-family: Verdana; color: rgb(255, 255, 255); line-height: 1.26; vertical-align: top; width: 116px; white-space: normal; text-align: center;">
            number
          </div>
        </foreignObject>
      </switch>
    </g>
    <rect x="452" y="2" width="120" height="40" rx="6" ry="6" fill="#cccccc" stroke="none" pointer-events="none"/>
    <g transform="translate(454,11)">
      <switch>
        <foreignObject pointer-events="all" width="116" height="22" requiredFeatures="http://www.w3.org/TR/SVG11/feature#Extensibility">
          <div xmlns="http://www.w3.org/1999/xhtml" style="display: inline-block; font-size: 18px; font-family: Verdana; color: rgb(255, 255, 255); line-height: 1.26; vertical-align: top; width: 116px; white-space: normal; text-align: center;">
            null
          </div>
        </foreignObject>
      </switch>
    </g>
    <rect x="602" y="2" width="120" height="40" rx="6" ry="6" fill="#cccccc" stroke="none" pointer-events="none"/>
    <g transform="translate(604,11)">
      <switch>
        <foreignObject pointer-events="all" width="116" height="22" requiredFeatures="http://www.w3.org/TR/SVG11/feature#Extensibility">
          <div xmlns="http://www.w3.org/1999/xhtml" style="display: inline-block; font-size: 18px; font-family: Verdana; color: rgb(255, 255, 255); line-height: 1.26; vertical-align: top; width: 116px; white-space: normal; text-align: center;">
            undefined
          </div>
        </foreignObject>
      </switch>
    </g>
    <rect x="752" y="2" width="120" height="40" rx="6" ry="6" fill="#3b7fc4" stroke="none" pointer-events="none"/>
    <g transform="translate(754,11)">
      <switch>
        <foreignObject pointer-events="all" width="116" height="22" requiredFeatures="http://www.w3.org/TR/SVG11/feature#Extensibility">
          <div xmlns="http://www.w3.org/1999/xhtml" style="display: inline-block; font-size: 18px; font-family: Verdana; color: rgb(255, 255, 255); line-height: 1.26; vertical-align: top; width: 116px; white-space: normal; text-align: center;">
            Object
          </div>
        </foreignObject>
      </switch>
    </g>
    <rect x="612" y="152" width="120" height="40" rx="6" ry="6" fill="#3b7fc4" stroke="none" pointer-events="none"/>
    <g transform="translate(614,161)">
      <switch>
        <foreignObject pointer-events="all" width="116" height="22" requiredFeatures="http://www.w3.org/TR/SVG11/feature#Extensibility">
          <div xmlns="http://www.w3.org/1999/xhtml" style="display: inline-block; font-size: 18px; font-family: Verdana; color: rgb(255, 255, 255); line-height: 1.26; vertical-align: top; width: 116px; white-space: normal; text-align: center;">
            Function
          </div>
        </foreignObject>
      </switch>
    </g>
    <path d="M 672 152 L 672 122 Q 672 112 682 112 L 802 112 Q 812 112 812 102 L 812 48" fill="none" stroke="#000000" stroke-miterlimit="10" pointer-events="none"/>
    <path d="M 812 43 L 816 50 L 812 48 L 809 50 Z" fill="#000000" stroke="#000000" stroke-miterlimit="10" pointer-events="none"/>
    <rect x="452" y="152" width="120" height="40" rx="6" ry="6" fill="#3b7fc4" stroke="none" pointer-events="none"/>
    <g transform="translate(454,161)">
      <switch>
        <foreignObject pointer-events="all" width="116" height="22" requiredFeatures="http://www.w3.org/TR/SVG11/feature#Extensibility">
          <div xmlns="http://www.w3.org/1999/xhtml" style="display: inline-block; font-size: 18px; font-family: Verdana; color: rgb(255, 255, 255); line-height: 1.26; vertical-align: top; width: 116px; white-space: normal; text-align: center;">
            Array
          </div>
        </foreignObject>
        <text x="58" y="20" fill="#FFFFFF" text-anchor="middle" font-size="18px" font-family="Verdana">
          [Not supported by viewer]
        </text>
      </switch>
    </g>
    <rect x="302" y="152" width="120" height="40" rx="6" ry="6" fill="#3b7fc4" stroke="none" pointer-events="none"/>
    <g transform="translate(304,161)">
      <switch>
        <foreignObject pointer-events="all" width="116" height="22" requiredFeatures="http://www.w3.org/TR/SVG11/feature#Extensibility">
          <div xmlns="http://www.w3.org/1999/xhtml" style="display: inline-block; font-size: 18px; font-family: Verdana; color: rgb(255, 255, 255); line-height: 1.26; vertical-align: top; width: 116px; white-space: normal; text-align: center;">
            Number
          </div>
        </foreignObject>
      </switch>
    </g>
    <rect x="152" y="152" width="120" height="40" rx="6" ry="6" fill="#3b7fc4" stroke="none" pointer-events="none"/>
    <g transform="translate(154,161)">
      <switch>
        <foreignObject pointer-events="all" width="116" height="22" requiredFeatures="http://www.w3.org/TR/SVG11/feature#Extensibility">
          <div xmlns="http://www.w3.org/1999/xhtml" style="display: inline-block; font-size: 18px; font-family: Verdana; color: rgb(255, 255, 255); line-height: 1.26; vertical-align: top; width: 116px; white-space: normal; text-align: center;">
            Boolean
          </div>
        </foreignObject>
      </switch>
    </g>
    <rect x="2" y="152" width="120" height="40" rx="6" ry="6" fill="#3b7fc4" stroke="none" pointer-events="none"/>
    <g transform="translate(4,161)">
      <switch>
        <foreignObject pointer-events="all" width="116" height="22" requiredFeatures="http://www.w3.org/TR/SVG11/feature#Extensibility">
          <div xmlns="http://www.w3.org/1999/xhtml" style="display: inline-block; font-size: 18px; font-family: Verdana; color: rgb(255, 255, 255); line-height: 1.26; vertical-align: top; width: 116px; white-space: normal; text-align: center;">
            String
          </div>
        </foreignObject>
      </switch>
    </g>
    <path d="M 512 152 L 512 122 Q 512 112 522 112 L 802 112 Q 812 112 812 102 L 812 48" fill="none" stroke="#000000" stroke-miterlimit="10" pointer-events="none"/>
    <path d="M 812 43 L 816 50 L 812 48 L 809 50 Z" fill="#000000" stroke="#000000" stroke-miterlimit="10" pointer-events="none"/>
    <path d="M 362 152 L 362 122 Q 362 112 372 112 L 802 112 Q 812 112 812 102 L 812 48" fill="none" stroke="#000000" stroke-miterlimit="10" pointer-events="none"/>
    <path d="M 812 43 L 816 50 L 812 48 L 809 50 Z" fill="#000000" stroke="#000000" stroke-miterlimit="10" pointer-events="none"/>
    <path d="M 212 152 L 212 122 Q 212 112 222 112 L 802 112 Q 812 112 812 102 L 812 48" fill="none" stroke="#000000" stroke-miterlimit="10" pointer-events="none"/>
    <path d="M 812 43 L 816 50 L 812 48 L 809 50 Z" fill="#000000" stroke="#000000" stroke-miterlimit="10" pointer-events="none"/>
    <path d="M 62 152 L 62 122 Q 62 112 72 112 L 802 112 Q 812 112 812 102 L 812 48" fill="none" stroke="#000000" stroke-miterlimit="10" pointer-events="none"/>
    <path d="M 812 43 L 816 50 L 812 48 L 809 50 Z" fill="#000000" stroke="#000000" stroke-miterlimit="10" pointer-events="none"/>
    <rect x="72" y="312" width="120" height="40" rx="6" ry="6" fill="#3b7fc4" stroke="none" pointer-events="none"/>
    <g transform="translate(74,321)">
      <switch>
        <foreignObject pointer-events="all" width="116" height="22" requiredFeatures="http://www.w3.org/TR/SVG11/feature#Extensibility">
          <div xmlns="http://www.w3.org/1999/xhtml" style="display: inline-block; font-size: 18px; font-family: Verdana; color: rgb(255, 255, 255); line-height: 1.26; vertical-align: top; width: 116px; white-space: normal; text-align: center;">
            Date
            <br />
          </div>
        </foreignObject>
      </switch>
    </g>
    <rect x="222" y="312" width="120" height="40" rx="6" ry="6" fill="#3b7fc4" stroke="none" pointer-events="none"/>
    <g transform="translate(224,321)">
      <switch>
        <foreignObject pointer-events="all" width="116" height="22" requiredFeatures="http://www.w3.org/TR/SVG11/feature#Extensibility">
          <div xmlns="http://www.w3.org/1999/xhtml" style="display: inline-block; font-size: 18px; font-family: Verdana; color: rgb(255, 255, 255); line-height: 1.26; vertical-align: top; width: 116px; white-space: normal; text-align: center;">
            RegExp
          </div>
        </foreignObject>
      </switch>
    </g>
    <rect x="372" y="312" width="120" height="40" rx="6" ry="6" fill="#3b7fc4" stroke="none" pointer-events="none"/>
    <g transform="translate(374,321)">
      <switch>
        <foreignObject pointer-events="all" width="116" height="22" requiredFeatures="http://www.w3.org/TR/SVG11/feature#Extensibility">
          <div xmlns="http://www.w3.org/1999/xhtml" style="display: inline-block; font-size: 18px; font-family: Verdana; color: rgb(255, 255, 255); line-height: 1.26; vertical-align: top; width: 116px; white-space: normal; text-align: center;">
            Error
          </div>
        </foreignObject>
      </switch>
    </g>
    <rect x="522" y="312" width="120" height="40" rx="6" ry="6" fill="#3b7fc4" stroke="none" pointer-events="none"/>
    <g transform="translate(524,321)">
      <switch>
        <foreignObject pointer-events="all" width="116" height="22" requiredFeatures="http://www.w3.org/TR/SVG11/feature#Extensibility">
          <div xmlns="http://www.w3.org/1999/xhtml" style="display: inline-block; font-size: 18px; font-family: Verdana; color: rgb(255, 255, 255); line-height: 1.26; vertical-align: top; width: 116px; white-space: normal; text-align: center;">
            Math
            <br />
          </div>
        </foreignObject>
      </switch>
    </g>
    <path d="M 132 312 L 132 282 Q 132 272 142 272 L 802 272 Q 812 272 812 262 L 812 48" fill="none" stroke="#000000" stroke-miterlimit="10" pointer-events="none"/>
    <path d="M 812 43 L 816 50 L 812 48 L 809 50 Z" fill="#000000" stroke="#000000" stroke-miterlimit="10" pointer-events="none"/>
    <path d="M 282 312 L 282 282 Q 282 272 292 272 L 802 272 Q 812 272 812 262 L 812 48" fill="none" stroke="#000000" stroke-miterlimit="10" pointer-events="none"/>
    <path d="M 812 43 L 816 50 L 812 48 L 809 50 Z" fill="#000000" stroke="#000000" stroke-miterlimit="10" pointer-events="none"/>
    <path d="M 432 312 L 432 282 Q 432 272 442 272 L 802 272 Q 812 272 812 262 L 812 48" fill="none" stroke="#000000" stroke-miterlimit="10" pointer-events="none"/>
    <path d="M 812 43 L 816 50 L 812 48 L 809 50 Z" fill="#000000" stroke="#000000" stroke-miterlimit="10" pointer-events="none"/>
    <path d="M 582 312 L 582 282 Q 582 272 592 272 L 802 272 Q 812 272 812 262 L 812 48" fill="none" stroke="#000000" stroke-miterlimit="10" pointer-events="none"/>
    <path d="M 812 43 L 816 50 L 812 48 L 809 50 Z" fill="#000000" stroke="#000000" stroke-miterlimit="10" pointer-events="none"/>
  </g>
</svg>